Data Exploration
…
Rows: 142 Columns: 6
── Column specification ───────────────────────────────────────────────────────────────────────────────────────────────────────────────────────────────
Delimiter: ","
chr (2): country, continent
dbl (4): year, pop, lifeExp, gdpPercap

ℹ Use `spec()` to retrieve the full column specification for this data.
ℹ Specify the column types or set `show_col_types = FALSE` to quiet this message.

This time, let’s look more closely at the data. If we type the name
of the object and evaluate it, we’ll see a preview:

gapminder_1997

# A tibble: 142 × 6
   country      year       pop continent lifeExp gdpPercap
   <chr>       <dbl>     <dbl> <chr>       <dbl>     <dbl>
 1 Afghanistan  1997  22227415 Asia         41.8      635.
 2 Albania      1997   3428038 Europe       73.0     3193.
 3 Algeria      1997  29072015 Africa       69.2     4797.
 4 Angola       1997   9875024 Africa       41.0     2277.
 5 Argentina    1997  36203463 Americas     73.3    10967.
 6 Australia    1997  18565243 Oceania      78.8    26998.
 7 Austria      1997   8069876 Europe       77.5    29096.
 8 Bahrain      1997    598561 Asia         73.9    20292.
 9 Bangladesh   1997 123315288 Asia         59.4      973.
10 Belgium      1997  10199787 Europe       77.5    27561.
# ℹ 132 more rows
…
[1] "Asia"     "Europe"   "Africa"   "Americas" "Oceania" 

Either way, if there was a misspelled entry, for example, “Urope” we
would have immediately seen it.

Subset columns with select()

Sometimes data tables have many columns, and it can be useful to
select only a few of them for exporting, use downstream, previewing,
etc. The select() function enables us to select a subset of
columns:

select(gapminder_1997, country, year, lifeExp)

# A tibble: 142 × 3
   country      year lifeExp
   <chr>       <dbl>   <dbl>
 1 Afghanistan  1997    41.8
 2 Albania      1997    73.0
 3 Algeria      1997    69.2
 4 Angola       1997    41.0
 5 Argentina    1997    73.3
 6 Australia    1997    78.8
 7 Austria      1997    77.5
 8 Bahrain      1997    73.9
 9 Bangladesh   1997    59.4
10 Belgium      1997    77.5
# ℹ 132 more rows

We can do the equivalent select() statement using base R
with:

gapminder_1997[ , c('country', 'year', 'lifeExp')]

# A tibble: 142 × 3
   country      year lifeExp
   <chr>       <dbl>   <dbl>
 1 Afghanistan  1997    41.8
 2 Albania      1997    73.0
 3 Algeria      1997    69.2
 4 Angola       1997    41.0
 5 Argentina    1997    73.3
 6 Australia    1997    78.8
 7 Austria      1997    77.5
 8 Bahrain      1997    73.9
 9 Bangladesh   1997    59.4
10 Belgium      1997    77.5
# ℹ 132 more rows

Here, again, we use the square bracket notation, but we have given a
vector of column names instead of a single one. Here the
c() function, meaning “combine”, creates a temporary vector
of column names.

Columns can be removed using select() with a “minus” in
front of the column name.

select(gapminder_1997, -year)

# A tibble: 142 × 5
   country           pop continent lifeExp gdpPercap
   <chr>           <dbl> <chr>       <dbl>     <dbl>
 1 Afghanistan  22227415 Asia         41.8      635.
 2 Albania       3428038 Europe       73.0     3193.
 3 Algeria      29072015 Africa       69.2     4797.
 4 Angola        9875024 Africa       41.0     2277.
 5 Argentina    36203463 Americas     73.3    10967.
 6 Australia    18565243 Oceania      78.8    26998.
 7 Austria       8069876 Europe       77.5    29096.
 8 Bahrain        598561 Asia         73.9    20292.
 9 Bangladesh  123315288 Asia         59.4      973.
10 Belgium      10199787 Europe       77.5    27561.
# ℹ 132 more rows

Notice the year column is no longer displayed. The
equivalent can be done in base R with:

gapminder_1997[, -2]

# A tibble: 142 × 5
   country           pop continent lifeExp gdpPercap
   <chr>           <dbl> <chr>       <dbl>     <dbl>
 1 Afghanistan  22227415 Asia         41.8      635.
 2 Albania       3428038 Europe       73.0     3193.
 3 Algeria      29072015 Africa       69.2     4797.
 4 Angola        9875024 Africa       41.0     2277.
 5 Argentina    36203463 Americas     73.3    10967.
 6 Australia    18565243 Oceania      78.8    26998.
 7 Austria       8069876 Europe       77.5    29096.
 8 Bahrain        598561 Asia         73.9    20292.
 9 Bangladesh  123315288 Asia         59.4      973.
10 Belgium      10199787 Europe       77.5    27561.
# ℹ 132 more rows

Note, the base R syntax works for numerical column indices only. The
following throws an error if we try to use the name of the column as we
did in the tidyverse syntax:

gapminder_1997[, -c('year')]

Error in -c("year"): invalid argument to unary operator

Note that if we view gapminder_1997 we notice haven’t
changed the original data because we haven’t saved the object.

gapminder_1997

# A tibble: 142 × 6
   country      year       pop continent lifeExp gdpPercap
   <chr>       <dbl>     <dbl> <chr>       <dbl>     <dbl>
 1 Afghanistan  1997  22227415 Asia         41.8      635.
 2 Albania      1997   3428038 Europe       73.0     3193.
 3 Algeria      1997  29072015 Africa       69.2     4797.
 4 Angola       1997   9875024 Africa       41.0     2277.
 5 Argentina    1997  36203463 Americas     73.3    10967.
 6 Australia    1997  18565243 Oceania      78.8    26998.
 7 Austria      1997   8069876 Europe       77.5    29096.
 8 Bahrain      1997    598561 Asia         73.9    20292.
 9 Bangladesh   1997 123315288 Asia         59.4      973.
10 Belgium      1997  10199787 Europe       77.5    27561.
# ℹ 132 more rows

To manipulate gapminder_1997 and save it as a new object
we have to assign it a new object name:

gapminder_column_subset = select(gapminder_1997, country, year, lifeExp)
gapminder_column_subset

# A tibble: 142 × 3
   country      year lifeExp
   <chr>       <dbl>   <dbl>
 1 Afghanistan  1997    41.8
 2 Albania      1997    73.0
 3 Algeria      1997    69.2
 4 Angola       1997    41.0
 5 Argentina    1997    73.3
 6 Australia    1997    78.8
 7 Austria      1997    77.5
 8 Bahrain      1997    73.9
 9 Bangladesh   1997    59.4
10 Belgium      1997    77.5
# ℹ 132 more rows
…
a & b
a and b
continent == 'Asia' & continent == 'Africa'

a %in% b
a in b
continent %in% c('Asia', 'Africa')

With these operators in mind we can filter the
gapminder_1997 data table in a variety of ways. To filter
for only the African data we could:

filter(gapminder_1997, continent == 'Africa')

# A tibble: 52 × 6
   country                   year      pop continent lifeExp gdpPercap
   <chr>                    <dbl>    <dbl> <chr>       <dbl>     <dbl>
 1 Algeria                   1997 29072015 Africa       69.2     4797.
 2 Angola                    1997  9875024 Africa       41.0     2277.
 3 Benin                     1997  6066080 Africa       54.8     1233.
 4 Botswana                  1997  1536536 Africa       52.6     8647.
 5 Burkina Faso              1997 10352843 Africa       50.3      946.
 6 Burundi                   1997  6121610 Africa       45.3      463.
 7 Cameroon                  1997 14195809 Africa       52.2     1694.
 8 Central African Republic  1997  3696513 Africa       46.1      741.
 9 Chad                      1997  7562011 Africa       51.6     1005.
10 Comoros                   1997   527982 Africa       60.7     1174.
# ℹ 42 more rows

The base R equivalent of the above uses the square bracket notation
that we saw earlier with a twist:

gapminder_1997[gapminder_1997$continent == 'Africa', ]

# A tibble: 52 × 6
   country                   year      pop continent lifeExp gdpPercap
   <chr>                    <dbl>    <dbl> <chr>       <dbl>     <dbl>
 1 Algeria                   1997 29072015 Africa       69.2     4797.
 2 Angola                    1997  9875024 Africa       41.0     2277.
 3 Benin                     1997  6066080 Africa       54.8     1233.
 4 Botswana                  1997  1536536 Africa       52.6     8647.
 5 Burkina Faso              1997 10352843 Africa       50.3      946.
 6 Burundi                   1997  6121610 Africa       45.3      463.
 7 Cameroon                  1997 14195809 Africa       52.2     1694.
 8 Central African Republic  1997  3696513 Africa       46.1      741.
 9 Chad                      1997  7562011 Africa       51.6     1005.
10 Comoros                   1997   527982 Africa       60.7     1174.
# ℹ 42 more rows

Here we put the condition in the row position, before the comma,
because because we want to subset rows. The blank after the comma
indicates we want all the columns returned. An alternative base R way to
do this is:

subset(gapminder_1997, continent == 'Africa')

# A tibble: 52 × 6
   country                   year      pop continent lifeExp gdpPercap
   <chr>                    <dbl>    <dbl> <chr>       <dbl>     <dbl>
 1 Algeria                   1997 29072015 Africa       69.2     4797.
 2 Angola                    1997  9875024 Africa       41.0     2277.
 3 Benin                     1997  6066080 Africa       54.8     1233.
 4 Botswana                  1997  1536536 Africa       52.6     8647.
 5 Burkina Faso              1997 10352843 Africa       50.3      946.
 6 Burundi                   1997  6121610 Africa       45.3      463.
 7 Cameroon                  1997 14195809 Africa       52.2     1694.
 8 Central African Republic  1997  3696513 Africa       46.1      741.
 9 Chad                      1997  7562011 Africa       51.6     1005.
10 Comoros                   1997   527982 Africa       60.7     1174.
# ℹ 42 more rows
…
Make new columns with mutate()

It’s common to use existing columns of a data table to create new
columns. For example, in the gapminder_1997 data we have a
pop column and a gdpPercap column. We could
multiply these two columns to get a new gdp column. The
dplyr function mutate() adds columns to an
existing data table.

mutate(gapminder_1997, gdp = pop * gdpPercap)

# A tibble: 142 × 7
   country      year       pop continent lifeExp gdpPercap           gdp
   <chr>       <dbl>     <dbl> <chr>       <dbl>     <dbl>         <dbl>
 1 Afghanistan  1997  22227415 Asia         41.8      635.  14121995875.
 2 Albania      1997   3428038 Europe       73.0     3193.  10945912519.
 3 Algeria      1997  29072015 Africa       69.2     4797. 139467033682.
 4 Angola       1997   9875024 Africa       41.0     2277.  22486820881.
 5 Argentina    1997  36203463 Americas     73.3    10967. 397053586287.
 6 Australia    1997  18565243 Oceania      78.8    26998. 501223252921.
 7 Austria      1997   8069876 Europe       77.5    29096. 234800471832.
 8 Bahrain      1997    598561 Asia         73.9    20292.  12146009862.
 9 Bangladesh   1997 123315288 Asia         59.4      973. 119957417048.
10 Belgium      1997  10199787 Europe       77.5    27561. 281118335091.
# ℹ 132 more rows

As before, this didn’t actually add the column to
gapminder_1997, we have to save the object to store it:

gapminder_gdp_1997 = mutate(gapminder_1997, gdp = pop * gdpPercap)
gapminder_gdp_1997

# A tibble: 142 × 7
   country      year       pop continent lifeExp gdpPercap           gdp
   <chr>       <dbl>     <dbl> <chr>       <dbl>     <dbl>         <dbl>
 1 Afghanistan  1997  22227415 Asia         41.8      635.  14121995875.
 2 Albania      1997   3428038 Europe       73.0     3193.  10945912519.
 3 Algeria      1997  29072015 Africa       69.2     4797. 139467033682.
 4 Angola       1997   9875024 Africa       41.0     2277.  22486820881.
 5 Argentina    1997  36203463 Americas     73.3    10967. 397053586287.
 6 Australia    1997  18565243 Oceania      78.8    26998. 501223252921.
 7 Austria      1997   8069876 Europe       77.5    29096. 234800471832.
 8 Bahrain      1997    598561 Asia         73.9    20292.  12146009862.
 9 Bangladesh   1997 123315288 Asia         59.4      973. 119957417048.
10 Belgium      1997  10199787 Europe       77.5    27561. 281118335091.
# ℹ 132 more rows
…
