Data Visualization with ggplot2
…
Let’s next create a bar plot that shows the global GDP over time with
continent-wise contributions separated by color. Let’s first mold the
fine-grained gapminder data into a summarized form where we
can see the totals per continent per year directly rather than try to
rely on ggplot2 doing the “right thing”.

gdp_by_continent_year = gapminder %>%
    group_by(continent, year) %>%
    summarize(aggregate_gdp = sum(total_gdp))

`summarise()` has grouped output by 'continent'. You can override using the `.groups` argument.

gdp_by_continent_year

# A tibble: 60 × 3
# Groups:   continent [5]
   continent  year aggregate_gdp
   <chr>     <int>         <dbl>
 1 Africa     1952       3.12e11
 2 Africa     1957       3.83e11
 3 Africa     1962       4.57e11
 4 Africa     1967       5.95e11
 5 Africa     1972       7.84e11
 6 Africa     1977       9.72e11
 7 Africa     1982       1.15e12
 8 Africa     1987       1.25e12
 9 Africa     1992       1.37e12
10 Africa     1997       1.56e12
# … with 50 more rows
…
